…
To play nicely with tab completion, we use consistent prefixes:

  * `gs_` = all functions in the package.
  * `gs_ws_` = all functions that operate on worksheets or tabs within a spreadsheet.
  * `gd_` = something to do with Google Drive, usually has a `gs_` synonym, might one day migrate to a Drive client.

### List your Google Sheets

The `gs_ls()` function returns a data frame of the sheets you would see in your Google Sheets home screen: <https://docs.google.com/spreadsheets/>. This should include sheets that you own and may also show sheets owned by others but that you are permitted to access, if you have visited the sheet in the browser. Expect a prompt to authenticate yourself in the browser at this point (more below re: auth).


```r
(my_sheets <- gs_ls())
#> # A tibble: 79 x 10
#>    sheet_title  author perm  version updated             sheet_key ws_feed
#>    <chr>        <chr>  <chr> <chr>   <dttm>              <chr>     <chr>  
#>  1 "          … "    … rw    new     2018-06-28 20:28:34 1vz6eeNH… https:…
#>  2 " EasyTweet… "    … r     new     2018-06-28 16:56:08 14mAbIi1… https:…
#>  3 "          … "    … r     new     2018-06-26 03:28:10 1WH65aJj… https:…
#>  4 Individual-… "    … r     new     2018-04-01 21:02:02 1nIwCydo… https:…
#>  5 "   Caffein… david… r     new     2018-03-30 10:07:36 1KYMUjrC… https:…
#>  6 "          … "    … r     new     2017-11-12 14:20:34 1oBQNnsM… https:…
#>  7 Tweet Colle… "    … rw    new     2017-11-10 22:58:38 1t-YMfnQ… https:…
#>  8 dsscollecti… jenny… r     new     2017-08-31 16:29:51 1Y6kLMkL… https:…
#>  9 Copy of Twi… "  jo… r     new     2017-08-23 18:25:37 1DoMXh2m… https:…
#> 10 STAT545 - 2… "    … rw    new     2017-07-27 17:34:46 1Hv31yW-… https:…
#> # ... with 69 more rows, and 3 more variables: alternate <chr>,
#> #   self <chr>, alt_key <chr>
…
```r
oceania <- gap %>%
  gs_read(ws = "Oceania")
#> Accessing worksheet titled 'Oceania'.
#> Parsed with column specification:
#> cols(
#>   country = col_character(),
#>   continent = col_character(),
#>   year = col_double(),
#>   lifeExp = col_double(),
#>   pop = col_double(),
#>   gdpPercap = col_double()
#> )
oceania
#> # A tibble: 24 x 6
#>    country   continent  year lifeExp      pop gdpPercap
#>    <chr>     <chr>     <dbl>   <dbl>    <dbl>     <dbl>
#>  1 Australia Oceania    1952    69.1  8691212    10040.
#>  2 Australia Oceania    1957    70.3  9712569    10950.
#>  3 Australia Oceania    1962    70.9 10794968    12217.
#>  4 Australia Oceania    1967    71.1 11872264    14526.
#>  5 Australia Oceania    1972    71.9 13177000    16789.
#>  6 Australia Oceania    1977    73.5 14074100    18334.
#>  7 Australia Oceania    1982    74.7 15184200    19477.
#>  8 Australia Oceania    1987    76.3 16257249    21889.
#>  9 Australia Oceania    1992    77.6 17481977    23425.
#> 10 Australia Oceania    1997    78.8 18565243    26998.
#> # ... with 14 more rows
…
#>   <chr>   <chr>  <dbl> <dbl>   <dbl>  <dbl>
#> 1 Finland Europe  1962  68.8 4491443  9372.
#> 2 Finland Europe  1967  69.8 4605744 10922.
#> 3 Finland Europe  1972  70.9 4639657 14359.
#> 4 Finland Europe  1977  72.5 4738902 15605.
gap %>% gs_read(ws = "Africa", range = cell_cols(1:4))
#> Accessing worksheet titled 'Africa'.
#> Parsed with column specification:
#> cols(
#>   country = col_character(),
#>   continent = col_character(),
#>   year = col_double(),
#>   lifeExp = col_double()
#> )
#> # A tibble: 624 x 4
#>    country continent  year lifeExp
#>    <chr>   <chr>     <dbl>   <dbl>
#>  1 Algeria Africa     1952    43.1
#>  2 Algeria Africa     1957    45.7
#>  3 Algeria Africa     1962    48.3
#>  4 Algeria Africa     1967    51.4
#>  5 Algeria Africa     1972    54.5
#>  6 Algeria Africa     1977    58.0
#>  7 Algeria Africa     1982    61.4
#>  8 Algeria Africa     1987    65.8
#>  9 Algeria Africa     1992    67.7
#> 10 Algeria Africa     1997    69.2
#> # ... with 614 more rows
…
```r
# Get the data for worksheet "Oceania": the super-fast csv way
oceania_csv <- gap %>% gs_read_csv(ws = "Oceania")
#> Accessing worksheet titled 'Oceania'.
#> Parsed with column specification:
#> cols(
#>   country = col_character(),
#>   continent = col_character(),
#>   year = col_double(),
#>   lifeExp = col_double(),
#>   pop = col_double(),
#>   gdpPercap = col_double()
#> )
oceania_csv
#> # A tibble: 24 x 6
#>    country   continent  year lifeExp      pop gdpPercap
#>    <chr>     <chr>     <dbl>   <dbl>    <dbl>     <dbl>
#>  1 Australia Oceania    1952    69.1  8691212    10040.
#>  2 Australia Oceania    1957    70.3  9712569    10950.
#>  3 Australia Oceania    1962    70.9 10794968    12217.
#>  4 Australia Oceania    1967    71.1 11872264    14526.
#>  5 Australia Oceania    1972    71.9 13177000    16789.
#>  6 Australia Oceania    1977    73.5 14074100    18334.
#>  7 Australia Oceania    1982    74.7 15184200    19477.
#>  8 Australia Oceania    1987    76.3 16257249    21889.
#>  9 Australia Oceania    1992    77.6 17481977    23425.
#> 10 Australia Oceania    1997    78.8 18565243    26998.
#> # ... with 14 more rows
…
# Get the data for worksheet "Oceania": the less-fast tabular way ("list feed")
oceania_list_feed <- gap %>% gs_read_listfeed(ws = "Oceania") 
#> Accessing worksheet titled 'Oceania'.
#> Parsed with column specification:
#> cols(
#>   country = col_character(),
#>   continent = col_character(),
#>   year = col_double(),
#>   lifeExp = col_double(),
#>   pop = col_double(),
#>   gdpPercap = col_double()
#> )
oceania_list_feed
#> # A tibble: 24 x 6
#>    country   continent  year lifeExp      pop gdpPercap
#>    <chr>     <chr>     <dbl>   <dbl>    <dbl>     <dbl>
#>  1 Australia Oceania    1952    69.1  8691212    10040.
#>  2 Australia Oceania    1957    70.3  9712569    10950.
#>  3 Australia Oceania    1962    70.9 10794968    12217.
#>  4 Australia Oceania    1967    71.1 11872264    14526.
#>  5 Australia Oceania    1972    71.9 13177000    16789.
#>  6 Australia Oceania    1977    73.5 14074100    18334.
#>  7 Australia Oceania    1982    74.7 15184200    19477.
#>  8 Australia Oceania    1987    76.3 16257249    21889.
#>  9 Australia Oceania    1992    77.6 17481977    23425.
#> 10 Australia Oceania    1997    78.8 18565243    26998.
#> # ... with 14 more rows
glimpse(oceania_list_feed)
#> Observations: 24
#> Variables: 6
#> $ country   <chr> "Australia", "Australia", "Australia", "Australia", ...
#> $ continent <chr> "Oceania", "Oceania", "Oceania", "Oceania", "Oceania...
#> $ year      <dbl> 1952, 1957, 1962, 1967, 1972, 1977, 1982, 1987, 1992...
#> $ lifeExp   <dbl> 69.120, 70.330, 70.930, 71.100, 71.930, 73.490, 74.7...
#> $ pop       <dbl> 8691212, 9712569, 10794968, 11872264, 13177000, 1407...
#> $ gdpPercap <dbl> 10039.60, 10949.65, 12217.23, 14526.12, 16788.63, 18...

# Get the data for worksheet "Oceania": the slow cell-by-cell way ("cell feed")
oceania_cell_feed <- gap %>% gs_read_cellfeed(ws = "Oceania") 
#> Accessing worksheet titled 'Oceania'.
oceania_cell_feed
#> # A tibble: 150 x 7
#>    cell  cell_alt   row   col value     input_value numeric_value
#>    <chr> <chr>    <int> <int> <chr>     <chr>       <chr>        
#>  1 A1    R1C1         1     1 country   country     <NA>         
#>  2 B1    R1C2         1     2 continent continent   <NA>         
#>  3 C1    R1C3         1     3 year      year        <NA>         
#>  4 D1    R1C4         1     4 lifeExp   lifeExp     <NA>         
#>  5 E1    R1C5         1     5 pop       pop         <NA>         
#>  6 F1    R1C6         1     6 gdpPercap gdpPercap   <NA>         
#>  7 A2    R2C1         2     1 Australia Australia   <NA>         
#>  8 B2    R2C2         2     2 Oceania   Oceania     <NA>         
#>  9 C2    R2C3         2     3 1952      1952        1952.0       
#> 10 D2    R2C4         2     4 69.12     69.12       69.12        
#> # ... with 140 more rows
…
# convert to a named (character) vector
gap_1row %>% gs_simplify_cellfeed()
#>          A1          B1          C1          D1          E1          F1 
#>   "country" "continent"      "year"   "lifeExp"       "pop" "gdpPercap"

# Example: single column
gap_1col <- gap %>% gs_read_cellfeed("Europe", range = cell_cols(3))
#> Accessing worksheet titled 'Europe'.
gap_1col
#> # A tibble: 361 x 7
#>    cell  cell_alt   row   col value input_value numeric_value
#>    <chr> <chr>    <int> <int> <chr> <chr>       <chr>        
#>  1 C1    R1C3         1     3 year  year        <NA>         
#>  2 C2    R2C3         2     3 1952  1952        1952.0       
#>  3 C3    R3C3         3     3 1957  1957        1957.0       
#>  4 C4    R4C3         4     3 1962  1962        1962.0       
#>  5 C5    R5C3         5     3 1967  1967        1967.0       
#>  6 C6    R6C3         6     3 1972  1972        1972.0       
#>  7 C7    R7C3         7     3 1977  1977        1977.0       
#>  8 C8    R8C3         8     3 1982  1982        1982.0       
#>  9 C9    R9C3         9     3 1987  1987        1987.0       
#> 10 C10   R10C3       10     3 1992  1992        1992.0       
#> # ... with 351 more rows
…
